…
## See also

Other functions for aggregating calendar probability distributions:
[`cal_sum()`](https://c14.joeroe.io/reference/cal_sum.md)

## Examples

``` r
data(shub1_c14)
shub1_cal <- c14_calibrate(shub1_c14$c14_age, shub1_c14$c14_error)
cal_density(shub1_cal)
#> # A tibble: 14,792 × 3
#>           age .estimate   .error
#>          <yr>     <dbl>    <dbl>
#>  1 789 cal BP  2.83e-14 1.41e-13
#>  2 790 cal BP  1.90e-13 9.50e-13
#>  3 791 cal BP  3.52e-13 1.76e-12
#>  4 792 cal BP  5.14e-13 2.57e-12
#>  5 793 cal BP  6.75e-13 3.38e-12
#>  6 794 cal BP  8.37e-13 4.18e-12
#>  7 795 cal BP  9.99e-13 4.99e-12
#>  8 796 cal BP  1.16e-12 5.80e-12
#>  9 797 cal BP  1.32e-12 6.61e-12
#> 10 798 cal BP  1.48e-12 7.42e-12
#> # ℹ 14,782 more rows
…
#> Warning: sum(weights) != 1  -- will not get true density
#> Warning: sum(weights) != 1  -- will not get true density
#> Warning: sum(weights) != 1  -- will not get true density
#> Warning: sum(weights) != 1  -- will not get true density
#> Warning: sum(weights) != 1  -- will not get true density
#> Warning: sum(weights) != 1  -- will not get true density
#> Warning: sum(weights) != 1  -- will not get true density
#> Warning: sum(weights) != 1  -- will not get true density
#> Warning: sum(weights) != 1  -- will not get true density
#> Warning: sum(weights) != 1  -- will not get true density
#> Warning: sum(weights) != 1  -- will not get true density
#> Warning: sum(weights) != 1  -- will not get true density
#> Warning: sum(weights) != 1  -- will not get true density
#> Warning: sum(weights) != 1  -- will not get true density
#> # A tibble: 14,792 × 3
#>           age .estimate   .error
#>          <yr>     <dbl>    <dbl>
#>  1 789 cal BP  8.33e-14 4.16e-13
#>  2 790 cal BP  5.61e-13 2.81e-12
#>  3 791 cal BP  1.04e-12 5.20e-12
#>  4 792 cal BP  1.52e-12 7.59e-12
#>  5 793 cal BP  2.00e-12 9.98e-12
#>  6 794 cal BP  2.47e-12 1.24e-11
#>  7 795 cal BP  2.95e-12 1.48e-11
#>  8 796 cal BP  3.43e-12 1.71e-11
#>  9 797 cal BP  3.91e-12 1.95e-11
#> 10 798 cal BP  4.39e-12 2.19e-11
#> # ℹ 14,782 more rows
```
