Kernel density estimation of calendar probability distributions — cal_density • c14
…
    References

    See also

    Other functions for aggregating calendar probability distributions:
cal_sum()

    Examples

data(shub1_c14)
shub1_cal <- c14_calibrate(shub1_c14$c14_age, shub1_c14$c14_error)
cal_density(shub1_cal)
#> # A tibble: 14,331 × 3
#>           age  .estimate    .error
#>          <yr>      <dbl>     <dbl>
#>  1 930 cal BP 0.00000583 0.0000291
#>  2 931 cal BP 0.00000613 0.0000306
#>  3 932 cal BP 0.00000644 0.0000321
#>  4 933 cal BP 0.00000674 0.0000336
#>  5 934 cal BP 0.00000705 0.0000351
#>  6 935 cal BP 0.00000735 0.0000366
#>  7 936 cal BP 0.00000766 0.0000381
#>  8 937 cal BP 0.00000796 0.0000396
#>  9 938 cal BP 0.00000827 0.0000411
#> 10 939 cal BP 0.00000857 0.0000426
#> # ℹ 14,321 more rows
…
#> Warning: sum(weights) != 1  -- will not get true density
#> Warning: sum(weights) != 1  -- will not get true density
#> Warning: sum(weights) != 1  -- will not get true density
#> Warning: sum(weights) != 1  -- will not get true density
#> Warning: sum(weights) != 1  -- will not get true density
#> Warning: sum(weights) != 1  -- will not get true density
#> Warning: sum(weights) != 1  -- will not get true density
#> Warning: sum(weights) != 1  -- will not get true density
#> Warning: sum(weights) != 1  -- will not get true density
#> Warning: sum(weights) != 1  -- will not get true density
#> Warning: sum(weights) != 1  -- will not get true density
#> Warning: sum(weights) != 1  -- will not get true density
#> Warning: sum(weights) != 1  -- will not get true density
#> Warning: sum(weights) != 1  -- will not get true density
#> # A tibble: 14,331 × 3
#>           age .estimate    .error
#>          <yr>     <dbl>     <dbl>
#>  1 930 cal BP 0.0000184 0.0000727
#>  2 931 cal BP 0.0000202 0.0000790
#>  3 932 cal BP 0.0000220 0.0000852
#>  4 933 cal BP 0.0000238 0.0000914
#>  5 934 cal BP 0.0000256 0.0000977
#>  6 935 cal BP 0.0000274 0.000104 
#>  7 936 cal BP 0.0000292 0.000110 
#>  8 937 cal BP 0.0000310 0.000116 
#>  9 938 cal BP 0.0000328 0.000123 
#> 10 939 cal BP 0.0000346 0.000129 
#> # ℹ 14,321 more rows
…
