Tidy radiocarbon data • c14
…
c14_calibrate(ages, errors)
#> <c14_cal[3]>
#> [1] 5604–5891 cal BP 6740–6946 cal BP 7705–7934 cal BP

This unlocks the real utility of the c14 package, which is embedding
calibration in a tidy workflow. For example, the shub1_c14
dataset (provided with the package) contains 27 radiocarbon dates from
the Epipalaeolithic site of Shubayqa 1 in eastern Jordan. We can
calibrate these dates within the data frame using dplyr’s
mutate() verb:

shub1_c14 |>
  mutate(cal = c14_calibrate(c14_age, c14_error))
#> # A tibble: 27 × 9
#>    lab_id      context phase   sample         material c14_age c14_error outlier
#>    <chr>         <int> <chr>   <chr>          <chr>      <int>     <int> <lgl>  
#>  1 RTD-7951         23 Phase 7 Context 126, … Bolbosc…   12166        55 FALSE  
#>  2 Beta-112146      24 Phase 7 SHUB1/105      gazelle…   12310        60 FALSE  
#>  3 RTD-7317         26 Phase 7 Context 83, S… Bolbosc…   12289        46 FALSE  
#>  4 RTD-7318         27 Phase 7 Context 86, S… Zilla s…   12332        46 FALSE  
#>  5 RTD-7948         24 Phase 7 Context 120, … Bolbosc…   12478        38 FALSE  
#>  6 RTD-7947         22 Phase 6 Context 166, … Bolbosc…   12322        38 FALSE  
#>  7 RTD-7313         22 Phase 6 Context 67, K… Bolbosc…   12346        46 FALSE  
#>  8 RTD-7311         22 Phase 6 Context 67, K… Vitex s…   12367        65 FALSE  
#>  9 RTD-7312         22 Phase 6 Context 67, K… Zilla s…   12405        50 FALSE  
#> 10 RTD-7314         22 Phase 6 Context 67, K… Bolbosc…   12273        48 FALSE  
#> # ℹ 17 more rows
#> # ℹ 1 more variable: cal <cal>
…
The table in the last example showed the highest density interval of
the calibrated radiocarbon date (at 95.4% probability – sometimes called
the ‘2-sigma’ range) of the calibrated radiocarbon date, rather than its
full probability distribution. 1 We can calculate this explicitly with
cal_hdi(), which also allows us to choose another
probability value:

shub1_c14 |>
  mutate(
    cal = c14_calibrate(c14_age, c14_error),
    cal_hdi_1sigma = cal_hdi(cal, interval = 0.683)
  ) |>
  select(lab_id, c14_age, c14_error, cal, cal_hdi_1sigma)
#> # A tibble: 27 × 5
#>    lab_id      c14_age c14_error                cal cal_hdi_1sigma
#>    <chr>         <int>     <int>              <cal> <list>        
#>  1 RTD-7951      12166        55 13813–14303 cal BP <yr [2]>      
#>  2 Beta-112146   12310        60 14074–14821 cal BP <yr [2]>      
#>  3 RTD-7317      12289        46 14072–14803 cal BP <yr [2]>      
#>  4 RTD-7318      12332        46 14102–14820 cal BP <yr [2]>      
#>  5 RTD-7948      12478        38 14348–14980 cal BP <yr [2]>      
#>  6 RTD-7947      12322        38 14103–14811 cal BP <yr [2]>      
#>  7 RTD-7313      12346        46 14116–14828 cal BP <yr [2]>      
#>  8 RTD-7311      12367        65 14128–14850 cal BP <yr [2]>      
#>  9 RTD-7312      12405        50 14216–14878 cal BP <yr [2]>      
#> 10 RTD-7314      12273        48 14058–14804 cal BP <yr [2]>      
#> # ℹ 17 more rows
…
shub1_c14 |>
  mutate(
    cal = c14_calibrate(c14_age, c14_error),
    cal_mode = cal_mode(cal)
  ) |>
  select(lab_id, c14_age, c14_error, cal, cal_mode)
#> Warning: There were 8 warnings in `mutate()`.
#> The first warning was:
#> ℹ In argument: `cal_mode = cal_mode(cal)`.
#> Caused by warning:
#> ! `x` has more than one modal value. Only the first will be returned.
#> ℹ Run `dplyr::last_dplyr_warnings()` to see the 7 remaining warnings.
#> # A tibble: 27 × 5
#>    lab_id      c14_age c14_error                cal     cal_mode
#>    <chr>         <int>     <int>              <cal>         <yr>
#>  1 RTD-7951      12166        55 13813–14303 cal BP 14065 cal BP
#>  2 Beta-112146   12310        60 14074–14821 cal BP 14205 cal BP
#>  3 RTD-7317      12289        46 14072–14803 cal BP 14185 cal BP
#>  4 RTD-7318      12332        46 14102–14820 cal BP 14250 cal BP
#>  5 RTD-7948      12478        38 14348–14980 cal BP 14640 cal BP
#>  6 RTD-7947      12322        38 14103–14811 cal BP 14245 cal BP
#>  7 RTD-7313      12346        46 14116–14828 cal BP 14255 cal BP
#>  8 RTD-7311      12367        65 14128–14850 cal BP 14340 cal BP
#>  9 RTD-7312      12405        50 14216–14878 cal BP 14375 cal BP
#> 10 RTD-7314      12273        48 14058–14804 cal BP 14165 cal BP
#> # ℹ 17 more rows
…
sum(shub1_cal)
#> <c14_cal_dist[1]>
#> [1] c. 14250 cal BP

Composite kernel density estimation

cal_density() uses composite kernel density estimation
(cKDE) to produce a smoother summary distribution. It resamples from
each date’s probability distribution and fits a kernel density estimate,
with optional bootstrapping to estimate uncertainty.

density_est <- cal_density(shub1_cal, bw = 30, times = 10)
density_est
#> # A tibble: 14,792 × 3
#>           age .estimate   .error
#>          <yr>     <dbl>    <dbl>
#>  1 789 cal BP  9.32e-21 2.09e-20
#>  2 790 cal BP  9.25e-21 2.05e-20
#>  3 791 cal BP  9.18e-21 2.01e-20
#>  4 792 cal BP  9.11e-21 1.96e-20
#>  5 793 cal BP  9.04e-21 1.92e-20
#>  6 794 cal BP  8.97e-21 1.87e-20
#>  7 795 cal BP  8.89e-21 1.83e-20
#>  8 796 cal BP  8.82e-21 1.78e-20
#>  9 797 cal BP  8.75e-21 1.74e-20
#> 10 798 cal BP  8.68e-21 1.70e-20
#> # ℹ 14,782 more rows
…
